module gitlab.com/valdemar-ceccon/wonder-translator

go 1.17

require (
	github.com/aws/aws-sdk-go-v2/config v1.10.1
	github.com/aws/aws-sdk-go-v2/service/translate v1.7.0
	github.com/gorilla/mux v1.8.0
)

require (
	github.com/aws/aws-sdk-go-v2 v1.11.0 // indirect
	github.com/aws/aws-sdk-go-v2/credentials v1.6.1 // indirect
	github.com/aws/aws-sdk-go-v2/feature/ec2/imds v1.8.0 // indirect
	github.com/aws/aws-sdk-go-v2/internal/configsources v1.1.0 // indirect
	github.com/aws/aws-sdk-go-v2/internal/endpoints/v2 v2.0.0 // indirect
	github.com/aws/aws-sdk-go-v2/internal/ini v1.3.0 // indirect
	github.com/aws/aws-sdk-go-v2/service/internal/presigned-url v1.5.0 // indirect
	github.com/aws/aws-sdk-go-v2/service/sso v1.6.0 // indirect
	github.com/aws/aws-sdk-go-v2/service/sts v1.10.0 // indirect
	github.com/aws/smithy-go v1.9.0 // indirect
)
